wave.vcd
$date
	Wed Mar  4 19:48:57 2026
$end
$version
	ModelSim Version 10.5b
$end
$timescale
	1ps
$end

$scope module tb_uart $end
$var reg 1 ! clk $end
$var reg 1 " rst $end
$var reg 8 # data_in [7:0] $end
$var reg 1 $ start $end
$var reg 1 % tx $end
$var reg 8 & rx_data [7:0] $end
$var reg 1 ' rx_valid $end
$var reg 1 ( busy $end

$scope module dut $end
$var parameter 32 ) CLKS_PER_BIT $end
$var wire 1 * clk $end
$var wire 1 + rst $end
$var wire 1 , data_in [7] $end
$var wire 1 - data_in [6] $end
$var wire 1 . data_in [5] $end
$var wire 1 / data_in [4] $end
$var wire 1 0 data_in [3] $end
$var wire 1 1 data_in [2] $end
$var wire 1 2 data_in [1] $end
$var wire 1 3 data_in [0] $end
$var wire 1 4 start $end
$var reg 1 5 tx $end
$var reg 8 6 rx_data [7:0] $end
$var reg 1 7 rx_valid $end
$var reg 1 8 busy $end
$var reg 1 9 tx_internal $end

$scope module tx_inst $end
$var parameter 32 : CLKS_PER_BIT $end
$var wire 1 * clk $end
$var wire 1 + rst $end
$var wire 1 , data_in [7] $end
$var wire 1 - data_in [6] $end
$var wire 1 . data_in [5] $end
$var wire 1 / data_in [4] $end
$var wire 1 0 data_in [3] $end
$var wire 1 1 data_in [2] $end
$var wire 1 2 data_in [1] $end
$var wire 1 3 data_in [0] $end
$var wire 1 4 start $end
$var reg 1 ; tx $end
$var reg 1 < busy $end
$var reg 3 = state [2:0] $end
$var reg 16 > clk_count [15:0] $end
$var reg 3 ? bit_index [2:0] $end
$var reg 8 @ tx_data [7:0] $end
$upscope $end

$scope module rx_inst $end
$var parameter 32 A CLKS_PER_BIT $end
$var wire 1 * clk $end
$var wire 1 + rst $end
$var wire 1 B rx $end
$var reg 8 C data_out [7:0] $end
$var reg 1 D valid $end
$var reg 3 E state [2:0] $end
$var reg 16 F clk_count [15:0] $end
$var reg 3 G bit_index [2:0] $end
$var reg 8 H rx_shift [7:0] $end
$upscope $end
$upscope $end
$upscope $end
$enddefinitions $end
#0
$dumpvars
0!
1"
bx #
x$
1%
bx &
0'
0(
15
bx 6
07
08
19
1;
0<
b0 =
b0 >
b0 ?
bx @
bx C
0D
b0 E
b0 F
b0 G
bx H
b10100 )
b10100 :
b10100 A
0*
1+
x3
x2
x1
x0
x/
x.
x-
x,
x4
1B
$end
#10000
1!
1*
#20000
0!
0*
#30000
1!
1*
#40000
0!
0*
#50000
1!
1*
#60000
0!
0*
#70000
1!
1*
#80000
0!
0*
#90000
1!
1*
#100000
0"
b10100101 #
1$
0!
13
02
11
00
0/
1.
0-
1,
14
0+
0*
#110000
1!
1*
1<
b10100101 @
b1 =
18
1(
#120000
0$
0!
04
0*
#130000
1!
1*
0;
b1 >
09
05
0B
0%
#140000
0!
0*
#150000
1!
1*
b10 >
b1 E
#160000
0!
0*
#170000
1!
1*
b11 >
b1 F
#180000
0!
0*
#190000
1!
1*
b100 >
b10 F
#200000
0!
0*
#210000
1!
1*
b101 >
b11 F
#220000
0!
0*
#230000
1!
1*
b110 >
b100 F
#240000
0!
0*
#250000
1!
1*
b111 >
b101 F
#260000
0!
0*
#270000
1!
1*
b1000 >
b110 F
#280000
0!
0*
#290000
1!
1*
b1001 >
b111 F
#300000
0!
0*
#310000
1!
1*
b1010 >
b1000 F
#320000
0!
0*
#330000
1!
1*
b1011 >
b1001 F
#340000
0!
0*
#350000
1!
1*
b1100 >
b1010 F
#360000
0!
0*
#370000
1!
1*
b1101 >
b0 F
b10 E
#380000
0!
0*
#390000
1!
1*
b1110 >
b1 F
#400000
0!
0*
#410000
1!
1*
b1111 >
b10 F
#420000
0!
0*
#430000
1!
1*
b10000 >
b11 F
#440000
0!
0*
#450000
1!
1*
b10001 >
b100 F
#460000
0!
0*
#470000
1!
1*
b10010 >
b101 F
#480000
0!
0*
#490000
1!
1*
b10011 >
b110 F
#500000
0!
0*
#510000
1!
1*
b0 >
b10 =
b111 F
#520000
0!
0*
#530000
1!
1*
1;
b1 >
b1000 F
19
15
1B
1%
#540000
0!
0*
#550000
1!
1*
b10 >
b1001 F
#560000
0!
0*
#570000
1!
1*
b11 >
b1010 F
#580000
0!
0*
#590000
1!
1*
b100 >
b1011 F
#600000
0!
0*
#610000
1!
1*
b101 >
b1100 F
#620000
0!
0*
#630000
1!
1*
b110 >
b1101 F
#640000
0!
0*
#650000
1!
1*
b111 >
b1110 F
#660000
0!
0*
#670000
1!
1*
b1000 >
b1111 F
#680000
0!
0*
#690000
1!
1*
b1001 >
b10000 F
#700000
0!
0*
#710000
1!
1*
b1010 >
b10001 F
#720000
0!
0*
#730000
1!
1*
b1011 >
b10010 F
#740000
0!
0*
#750000
1!
1*
b1100 >
b10011 F
#760000
0!
0*
#770000
1!
1*
b1101 >
b0 F
bx1 H
b1 G
#780000
0!
0*
#790000
1!
1*
b1110 >
b1 F
#800000
0!
0*
#810000
1!
1*
b1111 >
b10 F
#820000
0!
0*
#830000
1!
1*
b10000 >
b11 F
#840000
0!
0*
#850000
1!
1*
b10001 >
b100 F
#860000
0!
0*
#870000
1!
1*
b10010 >
b101 F
#880000
0!
0*
#890000
1!
1*
b10011 >
b110 F
#900000
0!
0*
#910000
1!
1*
b0 >
b1 ?
b111 F
#920000
0!
0*
#930000
1!
1*
0;
b1 >
b1000 F
09
05
0B
0%
#940000
0!
0*
#950000
1!
1*
b10 >
b1001 F
#960000
0!
0*
#970000
1!
1*
b11 >
b1010 F
#980000
0!
0*
#990000
1!
1*
b100 >
b1011 F
#1000000
0!
0*
#1010000
1!
1*
b101 >
b1100 F
#1020000
0!
0*
#1030000
1!
1*
b110 >
b1101 F
#1040000
0!
0*
#1050000
1!
1*
b111 >
b1110 F
#1060000
0!
0*
#1070000
1!
1*
b1000 >
b1111 F
#1080000
0!
0*
#1090000
1!
1*
b1001 >
b10000 F
#1100000
0!
0*
#1110000
1!
1*
b1010 >
b10001 F
#1120000
0!
0*
#1130000
1!
1*
b1011 >
b10010 F
#1140000
0!
0*
#1150000
1!
1*
b1100 >
b10011 F
#1160000
0!
0*
#1170000
1!
1*
b1101 >
b0 F
bx01 H
b10 G
#1180000
0!
0*
#1190000
1!
1*
b1110 >
b1 F
#1200000
0!
0*
#1210000
1!
1*
b1111 >
b10 F
#1220000
0!
0*
#1230000
1!
1*
b10000 >
b11 F
#1240000
0!
0*
#1250000
1!
1*
b10001 >
b100 F
#1260000
0!
0*
#1270000
1!
1*
b10010 >
b101 F
#1280000
0!
0*
#1290000
1!
1*
b10011 >
b110 F
#1300000
0!
0*
#1310000
1!
1*
b0 >
b10 ?
b111 F
#1320000
0!
0*
#1330000
1!
1*
1;
b1 >
b1000 F
19
15
1B
1%
#1340000
0!
0*
#1350000
1!
1*
b10 >
b1001 F
#1360000
0!
0*
#1370000
1!
1*
b11 >
b1010 F
#1380000
0!
0*
#1390000
1!
1*
b100 >
b1011 F
#1400000
0!
0*
#1410000
1!
1*
b101 >
b1100 F
#1420000
0!
0*
#1430000
1!
1*
b110 >
b1101 F
#1440000
0!
0*
#1450000
1!
1*
b111 >
b1110 F
#1460000
0!
0*
#1470000
1!
1*
b1000 >
b1111 F
#1480000
0!
0*
#1490000
1!
1*
b1001 >
b10000 F
#1500000
0!
0*
#1510000
1!
1*
b1010 >
b10001 F
#1520000
0!
0*
#1530000
1!
1*
b1011 >
b10010 F
#1540000
0!
0*
#1550000
1!
1*
b1100 >
b10011 F
#1560000
0!
0*
#1570000
1!
1*
b1101 >
b0 F
bx101 H
b11 G
#1580000
0!
0*
#1590000
1!
1*
b1110 >
b1 F
#1600000
0!
0*
#1610000
1!
1*
b1111 >
b10 F
#1620000
0!
0*
#1630000
1!
1*
b10000 >
b11 F
#1640000
0!
0*
#1650000
1!
1*
b10001 >
b100 F
#1660000
0!
0*
#1670000
1!
1*
b10010 >
b101 F
#1680000
0!
0*
#1690000
1!
1*
b10011 >
b110 F
#1700000
0!
0*
#1710000
1!
1*
b0 >
b11 ?
b111 F
#1720000
0!
0*
#1730000
1!
1*
0;
b1 >
b1000 F
09
05
0B
0%
#1740000
0!
0*
#1750000
1!
1*
b10 >
b1001 F
#1760000
0!
0*
#1770000
1!
1*
b11 >
b1010 F
#1780000
0!
0*
#1790000
1!
1*
b100 >
b1011 F
#1800000
0!
0*
#1810000
1!
1*
b101 >
b1100 F
#1820000
0!
0*
#1830000
1!
1*
b110 >
b1101 F
#1840000
0!
0*
#1850000
1!
1*
b111 >
b1110 F
#1860000
0!
0*
#1870000
1!
1*
b1000 >
b1111 F
#1880000
0!
0*
#1890000
1!
1*
b1001 >
b10000 F
#1900000
0!
0*
#1910000
1!
1*
b1010 >
b10001 F
#1920000
0!
0*
#1930000
1!
1*
b1011 >
b10010 F
#1940000
0!
0*
#1950000
1!
1*
b1100 >
b10011 F
#1960000
0!
0*
#1970000
1!
1*
b1101 >
b0 F
bx0101 H
b100 G
#1980000
0!
0*
#1990000
1!
1*
b1110 >
b1 F
#2000000
0!
0*
#2010000
1!
1*
b1111 >
b10 F
#2020000
0!
0*
#2030000
1!
1*
b10000 >
b11 F
#2040000
0!
0*
#2050000
1!
1*
b10001 >
b100 F
#2060000
0!
0*
#2070000
1!
1*
b10010 >
b101 F
#2080000
0!
0*
#2090000
1!
1*
b10011 >
b110 F
#2100000
0!
0*
#2110000
1!
1*
b0 >
b100 ?
b111 F
#2120000
0!
0*
#2130000
1!
1*
b1 >
b1000 F
#2140000
0!
0*
#2150000
1!
1*
b10 >
b1001 F
#2160000
0!
0*
#2170000
1!
1*
b11 >
b1010 F
#2180000
0!
0*
#2190000
1!
1*
b100 >
b1011 F
#2200000
0!
0*
#2210000
1!
1*
b101 >
b1100 F
#2220000
0!
0*
#2230000
1!
1*
b110 >
b1101 F
#2240000
0!
0*
#2250000
1!
1*
b111 >
b1110 F
#2260000
0!
0*
#2270000
1!
1*
b1000 >
b1111 F
#2280000
0!
0*
#2290000
1!
1*
b1001 >
b10000 F
#2300000
0!
0*
#2310000
1!
1*
b1010 >
b10001 F
#2320000
0!
0*
#2330000
1!
1*
b1011 >
b10010 F
#2340000
0!
0*
#2350000
1!
1*
b1100 >
b10011 F
#2360000
0!
0*
#2370000
1!
1*
b1101 >
b0 F
bx00101 H
b101 G
#2380000
0!
0*
#2390000
1!
1*
b1110 >
b1 F
#2400000
0!
0*
#2410000
1!
1*
b1111 >
b10 F
#2420000
0!
0*
#2430000
1!
1*
b10000 >
b11 F
#2440000
0!
0*
#2450000
1!
1*
b10001 >
b100 F
#2460000
0!
0*
#2470000
1!
1*
b10010 >
b101 F
#2480000
0!
0*
#2490000
1!
1*
b10011 >
b110 F
#2500000
0!
0*
#2510000
1!
1*
b0 >
b101 ?
b111 F
#2520000
0!
0*
#2530000
1!
1*
1;
b1 >
b1000 F
19
15
1B
1%
#2540000
0!
0*
#2550000
1!
1*
b10 >
b1001 F
#2560000
0!
0*
#2570000
1!
1*
b11 >
b1010 F
#2580000
0!
0*
#2590000
1!
1*
b100 >
b1011 F
#2600000
0!
0*
#2610000
1!
1*
b101 >
b1100 F
#2620000
0!
0*
#2630000
1!
1*
b110 >
b1101 F
#2640000
0!
0*
#2650000
1!
1*
b111 >
b1110 F
#2660000
0!
0*
#2670000
1!
1*
b1000 >
b1111 F
#2680000
0!
0*
#2690000
1!
1*
b1001 >
b10000 F
#2700000
0!
0*
#2710000
1!
1*
b1010 >
b10001 F
#2720000
0!
0*
#2730000
1!
1*
b1011 >
b10010 F
#2740000
0!
0*
#2750000
1!
1*
b1100 >
b10011 F
#2760000
0!
0*
#2770000
1!
1*
b1101 >
b0 F
bx100101 H
b110 G
#2780000
0!
0*
#2790000
1!
1*
b1110 >
b1 F
#2800000
0!
0*
#2810000
1!
1*
b1111 >
b10 F
#2820000
0!
0*
#2830000
1!
1*
b10000 >
b11 F
#2840000
0!
0*
#2850000
1!
1*
b10001 >
b100 F
#2860000
0!
0*
#2870000
1!
1*
b10010 >
b101 F
#2880000
0!
0*
#2890000
1!
1*
b10011 >
b110 F
#2900000
0!
0*
#2910000
1!
1*
b0 >
b110 ?
b111 F
#2920000
0!
0*
#2930000
1!
1*
0;
b1 >
b1000 F
09
05
0B
0%
#2940000
0!
0*
#2950000
1!
1*
b10 >
b1001 F
#2960000
0!
0*
#2970000
1!
1*
b11 >
b1010 F
#2980000
0!
0*
#2990000
1!
1*
b100 >
b1011 F
#3000000
0!
0*
#3010000
1!
1*
b101 >
b1100 F
#3020000
0!
0*
#3030000
1!
1*
b110 >
b1101 F
#3040000
0!
0*
#3050000
1!
1*
b111 >
b1110 F
#3060000
0!
0*
#3070000
1!
1*
b1000 >
b1111 F
#3080000
0!
0*
#3090000
1!
1*
b1001 >
b10000 F
#3100000
0!
0*
#3110000
1!
1*
b1010 >
b10001 F
#3120000
0!
0*
#3130000
1!
1*
b1011 >
b10010 F
#3140000
0!
0*
#3150000
1!
1*
b1100 >
b10011 F
#3160000
0!
0*
#3170000
1!
1*
b1101 >
b0 F
bx0100101 H
b111 G
#3180000
0!
0*
#3190000
1!
1*
b1110 >
b1 F
#3200000
0!
0*
#3210000
1!
1*
b1111 >
b10 F
#3220000
0!
0*
#3230000
1!
1*
b10000 >
b11 F
#3240000
0!
0*
#3250000
1!
1*
b10001 >
b100 F
#3260000
0!
0*
#3270000
1!
1*
b10010 >
b101 F
#3280000
0!
0*
#3290000
1!
1*
b10011 >
b110 F
#3300000
0!
0*
#3310000
1!
1*
b0 >
b111 ?
b111 F
#3320000
0!
0*
#3330000
1!
1*
1;
b1 >
b1000 F
19
15
1B
1%
#3340000
0!
0*
#3350000
1!
1*
b10 >
b1001 F
#3360000
0!
0*
#3370000
1!
1*
b11 >
b1010 F
#3380000
0!
0*
#3390000
1!
1*
b100 >
b1011 F
#3400000
0!
0*
#3410000
1!
1*
b101 >
b1100 F
#3420000
0!
0*
#3430000
1!
1*
b110 >
b1101 F
#3440000
0!
0*
#3450000
1!
1*
b111 >
b1110 F
#3460000
0!
0*
#3470000
1!
1*
b1000 >
b1111 F
#3480000
0!
0*
#3490000
1!
1*
b1001 >
b10000 F
#3500000
0!
0*
#3510000
1!
1*
b1010 >
b10001 F
#3520000
0!
0*
#3530000
1!
1*
b1011 >
b10010 F
#3540000
0!
0*
#3550000
1!
1*
b1100 >
b10011 F
#3560000
0!
0*
#3570000
1!
1*
b1101 >
b0 F
b10100101 H
b0 G
b11 E
#3580000
0!
0*
#3590000
1!
1*
b1110 >
b1 F
#3600000
0!
0*
#3610000
1!
1*
b1111 >
b10 F
#3620000
0!
0*
#3630000
1!
1*
b10000 >
b11 F
#3640000
0!
0*
#3650000
1!
1*
b10001 >
b100 F
#3660000
0!
0*
#3670000
1!
1*
b10010 >
b101 F
#3680000
0!
0*
#3690000
1!
1*
b10011 >
b110 F
#3700000
0!
0*
#3710000
1!
1*
b0 >
b0 ?
b11 =
b111 F
#3720000
0!
0*
#3730000
1!
1*
b1 >
b1000 F
#3740000
0!
0*
#3750000
1!
1*
b10 >
b1001 F
#3760000
0!
0*
#3770000
1!
1*
b11 >
b1010 F
#3780000
0!
0*
#3790000
1!
1*
b100 >
b1011 F
#3800000
0!
0*
#3810000
1!
1*
b101 >
b1100 F
#3820000
0!
0*
#3830000
1!
1*
b110 >
b1101 F
#3840000
0!
0*
#3850000
1!
1*
b111 >
b1110 F
#3860000
0!
0*
#3870000
1!
1*
b1000 >
b1111 F
#3880000
0!
0*
#3890000
1!
1*
b1001 >
b10000 F
#3900000
0!
0*
#3910000
1!
1*
b1010 >
b10001 F
#3920000
0!
0*
#3930000
1!
1*
b1011 >
b10010 F
#3940000
0!
0*
#3950000
1!
1*
b1100 >
b10011 F
#3960000
0!
0*
#3970000
1!
1*
b1101 >
b10100101 C
1D
b0 E
17
b10100101 6
b10100101 &
1'
#3980000
0!
0*
#3990000
1!
1*
b1110 >
0D
b0 F
07
0'
#4000000
0!
0*
#4010000
1!
1*
b1111 >
#4020000
0!
0*
#4030000
1!
1*
b10000 >
#4040000
0!
0*
#4050000
1!
1*
b10001 >
#4060000
0!
0*
#4070000
1!
1*
b10010 >
#4080000
0!
0*
#4090000
1!
1*
b10011 >
#4100000
0!
0*
#4110000
1!
1*
b0 =
#4120000
0!
0*
#4130000
1!
1*
0<
b0 >
08
0(
